%!PS-Adobe-3.0 EPSF-3.0
%%Creator: MATLAB, The MathWorks, Inc. Version 7.12.0.635 (R2011a). Operating System: Linux 3.16.0-4-amd64 #1 SMP Debian 3.16.36-1+deb8u1 (2016-09-03) x86_64.
%%Title: /home/jaemin/Research/bitbucket_repositories/smallscale_experiments/BO/results/travel_time_avr_cumulative_regret.eps
%%CreationDate: 10/19/2016  12:15:53
%%DocumentNeededFonts: Helvetica
%%DocumentProcessColors: Cyan Magenta Yellow Black
%%LanguageLevel: 2
%%Pages: 1
%%BoundingBox:    50   199   546   591
%%EndComments

%%BeginProlog
% MathWorks dictionary
/MathWorks 160 dict begin
% definition operators
/bdef {bind def} bind def
/ldef {load def} bind def
/xdef {exch def} bdef
/xstore {exch store} bdef
% operator abbreviations
/c  /clip ldef
/cc /concat ldef
/cp /closepath ldef
/gr /grestore ldef
/gs /gsave ldef
/mt /moveto ldef
/np /newpath ldef
/cm /currentmatrix ldef
/sm /setmatrix ldef
/rm /rmoveto ldef
/rl /rlineto ldef
/s {show newpath} bdef
/sc {setcmykcolor} bdef
/sr /setrgbcolor ldef
/sg /setgray ldef
/w /setlinewidth ldef
/j /setlinejoin ldef
/cap /setlinecap ldef
/rc {rectclip} bdef
/rf {rectfill} bdef
% page state control
/pgsv () def
/bpage {/pgsv save def} bdef
/epage {pgsv restore} bdef
/bplot /gsave ldef
/eplot {stroke grestore} bdef
% orientation switch
/portraitMode 0 def /landscapeMode 1 def /rotateMode 2 def
% coordinate system mappings
/dpi2point 0 def
% font control
/FontSize 0 def
/FMS {/FontSize xstore findfont [FontSize 0 0 FontSize neg 0 0]
  makefont setfont} bdef
/reencode {exch dup where {pop load} {pop StandardEncoding} ifelse
  exch dup 3 1 roll findfont dup length dict begin
  { 1 index /FID ne {def}{pop pop} ifelse } forall
  /Encoding exch def currentdict end definefont pop} bdef
/isroman {findfont /CharStrings get /Agrave known} bdef
/FMSR {3 1 roll 1 index dup isroman {reencode} {pop pop} ifelse
  exch FMS} bdef
/csm {1 dpi2point div -1 dpi2point div scale neg translate
 dup landscapeMode eq {pop -90 rotate}
  {rotateMode eq {90 rotate} if} ifelse} bdef
% line types: solid, dotted, dashed, dotdash
/SO { [] 0 setdash } bdef
/DO { [.5 dpi2point mul 4 dpi2point mul] 0 setdash } bdef
/DA { [6 dpi2point mul] 0 setdash } bdef
/DD { [.5 dpi2point mul 4 dpi2point mul 6 dpi2point mul 4
  dpi2point mul] 0 setdash } bdef
% macros for lines and objects
/L {lineto stroke} bdef
/MP {3 1 roll moveto 1 sub {rlineto} repeat} bdef
/AP {{rlineto} repeat} bdef
/PDlw -1 def
/W {/PDlw currentlinewidth def setlinewidth} def
/PP {closepath eofill} bdef
/DP {closepath stroke} bdef
/MR {4 -2 roll moveto dup  0 exch rlineto exch 0 rlineto
  neg 0 exch rlineto closepath} bdef
/FR {MR stroke} bdef
/PR {MR fill} bdef
/L1i {{currentfile picstr readhexstring pop} image} bdef
/tMatrix matrix def
/MakeOval {newpath tMatrix currentmatrix pop translate scale
0 0 1 0 360 arc tMatrix setmatrix} bdef
/FO {MakeOval stroke} bdef
/PO {MakeOval fill} bdef
/PD {currentlinewidth 2 div 0 360 arc fill
   PDlw -1 eq not {PDlw w /PDlw -1 def} if} def
/FA {newpath tMatrix currentmatrix pop translate scale
  0 0 1 5 -2 roll arc tMatrix setmatrix stroke} bdef
/PA {newpath tMatrix currentmatrix pop	translate 0 0 moveto scale
  0 0 1 5 -2 roll arc closepath tMatrix setmatrix fill} bdef
/FAn {newpath tMatrix currentmatrix pop translate scale
  0 0 1 5 -2 roll arcn tMatrix setmatrix stroke} bdef
/PAn {newpath tMatrix currentmatrix pop translate 0 0 moveto scale
  0 0 1 5 -2 roll arcn closepath tMatrix setmatrix fill} bdef
/vradius 0 def /hradius 0 def /lry 0 def
/lrx 0 def /uly 0 def /ulx 0 def /rad 0 def
/MRR {/vradius xdef /hradius xdef /lry xdef /lrx xdef /uly xdef
  /ulx xdef newpath tMatrix currentmatrix pop ulx hradius add uly
  vradius add translate hradius vradius scale 0 0 1 180 270 arc 
  tMatrix setmatrix lrx hradius sub uly vradius add translate
  hradius vradius scale 0 0 1 270 360 arc tMatrix setmatrix
  lrx hradius sub lry vradius sub translate hradius vradius scale
  0 0 1 0 90 arc tMatrix setmatrix ulx hradius add lry vradius sub
  translate hradius vradius scale 0 0 1 90 180 arc tMatrix setmatrix
  closepath} bdef
/FRR {MRR stroke } bdef
/PRR {MRR fill } bdef
/MlrRR {/lry xdef /lrx xdef /uly xdef /ulx xdef /rad lry uly sub 2 div def
  newpath tMatrix currentmatrix pop ulx rad add uly rad add translate
  rad rad scale 0 0 1 90 270 arc tMatrix setmatrix lrx rad sub lry rad
  sub translate rad rad scale 0 0 1 270 90 arc tMatrix setmatrix
  closepath} bdef
/FlrRR {MlrRR stroke } bdef
/PlrRR {MlrRR fill } bdef
/MtbRR {/lry xdef /lrx xdef /uly xdef /ulx xdef /rad lrx ulx sub 2 div def
  newpath tMatrix currentmatrix pop ulx rad add uly rad add translate
  rad rad scale 0 0 1 180 360 arc tMatrix setmatrix lrx rad sub lry rad
  sub translate rad rad scale 0 0 1 0 180 arc tMatrix setmatrix
  closepath} bdef
/FtbRR {MtbRR stroke } bdef
/PtbRR {MtbRR fill } bdef
/stri 6 array def /dtri 6 array def
/smat 6 array def /dmat 6 array def
/tmat1 6 array def /tmat2 6 array def /dif 3 array def
/asub {/ind2 exch def /ind1 exch def dup dup
  ind1 get exch ind2 get sub exch } bdef
/tri_to_matrix {
  2 0 asub 3 1 asub 4 0 asub 5 1 asub
  dup 0 get exch 1 get 7 -1 roll astore } bdef
/compute_transform {
  dmat dtri tri_to_matrix tmat1 invertmatrix 
  smat stri tri_to_matrix tmat2 concatmatrix } bdef
/ds {stri astore pop} bdef
/dt {dtri astore pop} bdef
/db {2 copy /cols xdef /rows xdef mul dup 3 mul string
  currentfile 
  3 index 0 eq {/ASCIIHexDecode filter}
  {/ASCII85Decode filter 3 index 2 eq {/RunLengthDecode filter} if }
  ifelse exch readstring pop
  dup 0 3 index getinterval /rbmap xdef
  dup 2 index dup getinterval /gbmap xdef
  1 index dup 2 mul exch getinterval /bbmap xdef pop pop}bdef
/it {gs np dtri aload pop moveto lineto lineto cp c
  cols rows 8 compute_transform 
  rbmap gbmap bbmap true 3 colorimage gr}bdef
/il {newpath moveto lineto stroke}bdef
currentdict end def
%%EndProlog

%%BeginSetup
MathWorks begin

0 cap

end
%%EndSetup

%%Page: 1 1
%%BeginPageSetup
%%PageBoundingBox:    50   199   546   591
MathWorks begin
bpage
%%EndPageSetup

%%BeginObject: obj1
bplot

/dpi2point 12 def
portraitMode 0216 7344 csm

  392   247  5953  4708 rc
87 dict begin %Colortable dictionary
/c0 { 0.000000 0.000000 0.000000 sr} bdef
/c1 { 1.000000 1.000000 1.000000 sr} bdef
/c2 { 0.900000 0.000000 0.000000 sr} bdef
/c3 { 0.000000 0.820000 0.000000 sr} bdef
/c4 { 0.000000 0.000000 0.800000 sr} bdef
/c5 { 0.910000 0.820000 0.320000 sr} bdef
/c6 { 1.000000 0.260000 0.820000 sr} bdef
/c7 { 0.000000 0.820000 0.820000 sr} bdef
c0
1 j
1 sg
   0    0 6913 5186 rf
6 w
0 4226 5356 0 0 -4226 899 4615 4 MP
PP
-5356 0 0 4226 5356 0 0 -4226 899 4615 5 MP stroke
4 w
DO
SO
6 w
0 sg
 899 4615 mt 6255 4615 L
 899  389 mt 6255  389 L
 899 4615 mt  899  389 L
6255 4615 mt 6255  389 L
 899 4615 mt 6255 4615 L
 899 4615 mt  899  389 L
 899 4615 mt  899 4561 L
 899  389 mt  899  442 L
%%IncludeResource: font Helvetica
/Helvetica /ISOLatin1Encoding 120 FMSR

 866 4760 mt 
(0) s
1409 4615 mt 1409 4561 L
1409  389 mt 1409  442 L
1343 4760 mt 
(10) s
1919 4615 mt 1919 4561 L
1919  389 mt 1919  442 L
1853 4760 mt 
(20) s
2429 4615 mt 2429 4561 L
2429  389 mt 2429  442 L
2363 4760 mt 
(30) s
2939 4615 mt 2939 4561 L
2939  389 mt 2939  442 L
2873 4760 mt 
(40) s
3449 4615 mt 3449 4561 L
3449  389 mt 3449  442 L
3383 4760 mt 
(50) s
3959 4615 mt 3959 4561 L
3959  389 mt 3959  442 L
3893 4760 mt 
(60) s
4469 4615 mt 4469 4561 L
4469  389 mt 4469  442 L
4403 4760 mt 
(70) s
4979 4615 mt 4979 4561 L
4979  389 mt 4979  442 L
4913 4760 mt 
(80) s
5489 4615 mt 5489 4561 L
5489  389 mt 5489  442 L
5423 4760 mt 
(90) s
5999 4615 mt 5999 4561 L
5999  389 mt 5999  442 L
5899 4760 mt 
(100) s
 899 4615 mt  952 4615 L
6255 4615 mt 6201 4615 L
 731 4659 mt 
(40) s
 899 4192 mt  952 4192 L
6255 4192 mt 6201 4192 L
 731 4236 mt 
(60) s
 899 3769 mt  952 3769 L
6255 3769 mt 6201 3769 L
 731 3813 mt 
(80) s
 899 3347 mt  952 3347 L
6255 3347 mt 6201 3347 L
 664 3391 mt 
(100) s
 899 2924 mt  952 2924 L
6255 2924 mt 6201 2924 L
 664 2968 mt 
(120) s
 899 2502 mt  952 2502 L
6255 2502 mt 6201 2502 L
 664 2546 mt 
(140) s
 899 2079 mt  952 2079 L
6255 2079 mt 6201 2079 L
 664 2123 mt 
(160) s
 899 1656 mt  952 1656 L
6255 1656 mt 6201 1656 L
 664 1700 mt 
(180) s
 899 1234 mt  952 1234 L
6255 1234 mt 6201 1234 L
 664 1278 mt 
(200) s
 899  811 mt  952  811 L
6255  811 mt 6201  811 L
 664  855 mt 
(220) s
 899  389 mt  952  389 L
6255  389 mt 6201  389 L
 664  433 mt 
(240) s
 899 4615 mt 6255 4615 L
 899  389 mt 6255  389 L
 899 4615 mt  899  389 L
6255 4615 mt 6255  389 L
gs 899 389 5357 4227 rc
gs 1285 3446 4737 1052 rc
0 j
41 71 -82 0 41 -71 1358 3768 4 MP
/c8 { 0.000000 1.000000 0.000000 sr} bdef
c8
DP
41 71 -82 0 41 -71 1868 3778 4 MP
DP
41 71 -82 0 41 -71 2378 3566 4 MP
DP
41 71 -82 0 41 -71 2888 3812 4 MP
DP
41 71 -82 0 41 -71 3398 4005 4 MP
DP
41 71 -82 0 41 -71 3908 4134 4 MP
DP
41 71 -82 0 41 -71 4418 4241 4 MP
DP
41 71 -82 0 41 -71 4928 4334 4 MP
DP
41 71 -82 0 41 -71 5438 4413 4 MP
DP
41 71 -82 0 41 -71 5948 4471 4 MP
DP
gr

c8
gs 1285 2084 4737 1503 rc
0 j
-41 71 -41 -71 82 0 1317 2181 4 MP
/c9 { 1.000000 1.000000 0.000000 sr} bdef
c9
DP
-41 71 -41 -71 82 0 1827 2603 4 MP
DP
-41 71 -41 -71 82 0 2337 2868 4 MP
DP
-41 71 -41 -71 82 0 2847 3063 4 MP
DP
-41 71 -41 -71 82 0 3357 3216 4 MP
DP
-41 71 -41 -71 82 0 3867 3323 4 MP
DP
-41 71 -41 -71 82 0 4377 3394 4 MP
DP
-41 71 -41 -71 82 0 4887 3428 4 MP
DP
-41 71 -41 -71 82 0 5397 3489 4 MP
DP
-41 71 -41 -71 82 0 5907 3537 4 MP
DP
gr

c9
gs 1285 2231 4737 254 rc
0 sg
1322 2376 mt 1394 2376 L
1358 2340 mt 1358 2412 L
1832 2341 mt 1904 2341 L
1868 2305 mt 1868 2377 L
2342 2365 mt 2414 2365 L
2378 2329 mt 2378 2401 L
2852 2304 mt 2924 2304 L
2888 2268 mt 2888 2340 L
3362 2320 mt 3434 2320 L
3398 2284 mt 3398 2356 L
3872 2326 mt 3944 2326 L
3908 2290 mt 3908 2362 L
4382 2366 mt 4454 2366 L
4418 2330 mt 4418 2402 L
4892 2382 mt 4964 2382 L
4928 2346 mt 4928 2418 L
5402 2387 mt 5474 2387 L
5438 2351 mt 5438 2423 L
5912 2411 mt 5984 2411 L
5948 2375 mt 5948 2447 L
gr

0 sg
gr

3330 4903 mt 
(Iterations) s
 528 2628 mt  -90 rotate
(R) s
90 rotate
%%IncludeResource: font Helvetica
/Helvetica /ISOLatin1Encoding 96 FMSR

 588 2542 mt  -90 rotate
(T) s
90 rotate
%%IncludeResource: font Helvetica
/Helvetica /ISOLatin1Encoding 120 FMSR

 528 2484 mt  -90 rotate
(/T) s
90 rotate
 882 4658 mt 
( ) s
6239  431 mt 
( ) s
gs 899 389 5357 4227 rc
c8
51 6 51 4 51 4 51 7 51 5 51 7 51 4 51 7 
51 8 51 6 51 7 51 8 51 8 51 8 51 7 51 8 
51 8 51 8 51 9 51 8 51 8 51 8 51 8 51 11 
51 10 51 10 51 9 51 8 51 9 51 12 51 11 51 12 
51 13 51 11 51 12 51 11 51 14 51 12 51 2 51 9 
51 7 51 14 51 14 51 13 51 16 51 7 51 13 51 16 
51 18 51 11 51 11 51 18 51 11 51 17 51 22 51 21 
51 15 51 26 51 24 51 28 51 28 51 25 51 31 51 32 
51 33 51 31 51 22 51 40 51 1 51 3 51 -59 51 -38 
51 -36 51 -13 51 -24 51 -32 51 -21 51 12 51 -3 51 2 
51 12 51 -9 51 -14 51 -31 51 -3 51 -11 51 -21 51 22 
51 18 51 47 51 37 51 103 51 45 51 117 51 122 51 171 
51 99 51 452 51 733 899 1842 100 MP stroke
0 264 1358 3589 2 MP stroke
91 0 1312 3589 2 MP stroke
91 0 1312 3853 2 MP stroke
0 199 1868 3631 2 MP stroke
92 0 1822 3631 2 MP stroke
92 0 1822 3830 2 MP stroke
0 137 2378 3451 2 MP stroke
92 0 2332 3451 2 MP stroke
92 0 2332 3588 2 MP stroke
0 75 2888 3728 2 MP stroke
92 0 2842 3728 2 MP stroke
92 0 2842 3803 2 MP stroke
0 63 3398 3927 2 MP stroke
92 0 3352 3927 2 MP stroke
92 0 3352 3990 2 MP stroke
0 53 3908 4061 2 MP stroke
92 0 3862 4061 2 MP stroke
92 0 3862 4114 2 MP stroke
0 42 4418 4173 2 MP stroke
92 0 4372 4173 2 MP stroke
92 0 4372 4215 2 MP stroke
0 40 4928 4267 2 MP stroke
92 0 4882 4267 2 MP stroke
92 0 4882 4307 2 MP stroke
0 39 5438 4346 2 MP stroke
92 0 5392 4346 2 MP stroke
92 0 5392 4385 2 MP stroke
0 36 5948 4406 2 MP stroke
91 0 5903 4406 2 MP stroke
91 0 5903 4442 2 MP stroke
gs 1285 3446 4737 1052 rc
0 j
41 71 -82 0 41 -71 1358 3768 4 MP
DP
41 71 -82 0 41 -71 1868 3778 4 MP
DP
41 71 -82 0 41 -71 2378 3566 4 MP
DP
41 71 -82 0 41 -71 2888 3812 4 MP
DP
41 71 -82 0 41 -71 3398 4005 4 MP
DP
41 71 -82 0 41 -71 3908 4134 4 MP
DP
41 71 -82 0 41 -71 4418 4241 4 MP
DP
41 71 -82 0 41 -71 4928 4334 4 MP
DP
41 71 -82 0 41 -71 5438 4413 4 MP
DP
41 71 -82 0 41 -71 5948 4471 4 MP
DP
gr

c9
51 0 51 -4 51 0 51 2 51 4 51 8 51 7 51 5 
51 13 51 13 51 1 51 -4 51 1 51 3 51 4 51 10 
51 8 51 6 51 16 51 16 51 -20 51 -17 51 12 51 -2 
51 -7 51 11 51 6 51 15 51 18 51 18 51 -22 51 -12 
51 15 51 15 51 17 51 3 51 2 51 10 51 21 51 22 
51 -17 51 -5 51 13 51 4 51 14 51 16 51 11 51 16 
51 27 51 28 51 -6 51 -12 51 28 51 5 51 12 51 23 
51 11 51 16 51 37 51 39 51 0 51 -3 51 6 51 17 
51 14 51 33 51 11 51 6 51 54 51 57 51 -1 51 -19 
51 -15 51 17 51 30 51 48 51 -6 51 29 51 86 51 96 
51 -17 51 -35 51 -13 51 3 51 20 51 37 51 -29 51 71 
51 163 51 222 51 -33 51 74 51 122 51 -115 51 127 51 167 
51 136 51 137 51 972 899 570 100 MP stroke
0 269 1358 2023 2 MP stroke
91 0 1312 2023 2 MP stroke
91 0 1312 2292 2 MP stroke
0 252 1868 2453 2 MP stroke
92 0 1822 2453 2 MP stroke
92 0 1822 2705 2 MP stroke
0 282 2378 2703 2 MP stroke
92 0 2332 2703 2 MP stroke
92 0 2332 2985 2 MP stroke
0 268 2888 2905 2 MP stroke
92 0 2842 2905 2 MP stroke
92 0 2842 3173 2 MP stroke
0 247 3398 3068 2 MP stroke
92 0 3352 3068 2 MP stroke
92 0 3352 3315 2 MP stroke
0 234 3908 3182 2 MP stroke
92 0 3862 3182 2 MP stroke
92 0 3862 3416 2 MP stroke
0 229 4418 3255 2 MP stroke
92 0 4372 3255 2 MP stroke
92 0 4372 3484 2 MP stroke
0 223 4928 3293 2 MP stroke
92 0 4882 3293 2 MP stroke
92 0 4882 3516 2 MP stroke
0 211 5438 3359 2 MP stroke
92 0 5392 3359 2 MP stroke
92 0 5392 3570 2 MP stroke
0 204 5948 3411 2 MP stroke
91 0 5903 3411 2 MP stroke
91 0 5903 3615 2 MP stroke
gs 1285 2084 4737 1503 rc
0 j
-41 71 -41 -71 82 0 1317 2181 4 MP
DP
-41 71 -41 -71 82 0 1827 2603 4 MP
DP
-41 71 -41 -71 82 0 2337 2868 4 MP
DP
-41 71 -41 -71 82 0 2847 3063 4 MP
DP
-41 71 -41 -71 82 0 3357 3216 4 MP
DP
-41 71 -41 -71 82 0 3867 3323 4 MP
DP
-41 71 -41 -71 82 0 4377 3394 4 MP
DP
-41 71 -41 -71 82 0 4887 3428 4 MP
DP
-41 71 -41 -71 82 0 5397 3489 4 MP
DP
-41 71 -41 -71 82 0 5907 3537 4 MP
DP
gr

0 sg
51 -8 51 -4 51 8 51 3 51 4 51 4 51 12 51 3 
51 0 51 2 51 4 51 4 51 7 51 6 51 -3 51 1 
51 -4 51 -11 51 -2 51 3 51 -2 51 -11 51 8 51 0 
51 -14 51 -5 51 6 51 16 51 8 51 10 51 7 51 6 
51 6 51 -4 51 3 51 -2 51 -4 51 18 51 10 51 0 
51 2 51 -3 51 -4 51 0 51 5 51 19 51 -3 51 -13 
51 -9 51 12 51 -3 51 -7 51 9 51 0 51 8 51 3 
51 -5 51 9 51 6 51 -4 51 9 51 -28 51 11 51 -12 
51 -15 51 2 51 -8 51 -4 51 -13 51 -3 51 -6 51 -15 
51 3 51 -8 51 -1 51 46 51 8 51 -5 51 -4 51 6 
51 5 51 35 51 5 51 -42 51 -60 51 0 51 -18 51 5 
51 27 51 8 51 120 51 66 51 -44 51 -8 51 18 51 -176 
51 -126 51 -123 51 -165 899 2814 100 MP stroke
0 268 1358 2242 2 MP stroke
91 0 1312 2242 2 MP stroke
91 0 1312 2510 2 MP stroke
0 208 1868 2237 2 MP stroke
92 0 1822 2237 2 MP stroke
92 0 1822 2445 2 MP stroke
0 168 2378 2281 2 MP stroke
92 0 2332 2281 2 MP stroke
92 0 2332 2449 2 MP stroke
0 135 2888 2237 2 MP stroke
92 0 2842 2237 2 MP stroke
92 0 2842 2372 2 MP stroke
0 125 3398 2258 2 MP stroke
92 0 3352 2258 2 MP stroke
92 0 3352 2383 2 MP stroke
0 135 3908 2259 2 MP stroke
92 0 3862 2259 2 MP stroke
92 0 3862 2394 2 MP stroke
0 135 4418 2298 2 MP stroke
92 0 4372 2298 2 MP stroke
92 0 4372 2433 2 MP stroke
0 106 4928 2329 2 MP stroke
92 0 4882 2329 2 MP stroke
92 0 4882 2435 2 MP stroke
0 98 5438 2338 2 MP stroke
92 0 5392 2338 2 MP stroke
92 0 5392 2436 2 MP stroke
0 91 5948 2366 2 MP stroke
91 0 5903 2366 2 MP stroke
91 0 5903 2457 2 MP stroke
gs 1285 2231 4737 254 rc
1322 2376 mt 1394 2376 L
1358 2340 mt 1358 2412 L
1832 2341 mt 1904 2341 L
1868 2305 mt 1868 2377 L
2342 2365 mt 2414 2365 L
2378 2329 mt 2378 2401 L
2852 2304 mt 2924 2304 L
2888 2268 mt 2888 2340 L
3362 2320 mt 3434 2320 L
3398 2284 mt 3398 2356 L
3872 2326 mt 3944 2326 L
3908 2290 mt 3908 2362 L
4382 2366 mt 4454 2366 L
4418 2330 mt 4418 2402 L
4892 2382 mt 4964 2382 L
4928 2346 mt 4928 2418 L
5402 2387 mt 5474 2387 L
5438 2351 mt 5438 2423 L
5912 2411 mt 5984 2411 L
5948 2375 mt 5948 2447 L
gr

gr

1 sg
0 480 1421 0 0 -480 4774 929 4 MP
PP
-1421 0 0 480 1421 0 0 -480 4774 929 5 MP stroke
4 w
DO
SO
6 w
0 sg
4774  929 mt 6195  929 L
4774  449 mt 6195  449 L
4774  929 mt 4774  449 L
6195  929 mt 6195  449 L
4774  929 mt 6195  929 L
4774  929 mt 4774  449 L
4774  929 mt 6195  929 L
4774  449 mt 6195  449 L
4774  929 mt 4774  449 L
6195  929 mt 6195  449 L
5238  582 mt 
(original BO) s
gs 4774 449 1422 481 rc
gs 4950 466 147 147 rc
0 j
41 71 -82 0 41 -71 5023 586 4 MP
c8
DP
gr

c8
gr

c8
0 sg
5238  732 mt 
(genetic algorithm) s
gs 4774 449 1422 481 rc
gs 4950 616 147 147 rc
0 j
-41 71 -41 -71 82 0 4982 713 4 MP
c9
DP
gr

c9
gr

c9
0 sg
5238  881 mt 
(random selection) s
gs 4774 449 1422 481 rc
gs 4950 765 147 147 rc
4987  838 mt 5059  838 L
5023  802 mt 5023  874 L
gr

gr


end %%Color Dict

eplot
%%EndObject

epage
end

showpage

%%Trailer
%%EOF
