%!PS-Adobe-3.0 EPSF-3.0
%%Creator: MATLAB, The MathWorks, Inc. Version 7.12.0.635 (R2011a). Operating System: Linux 3.16.0-4-amd64 #1 SMP Debian 3.16.36-1+deb8u1 (2016-09-03) x86_64.
%%Title: /home/jaemin/Research/bitbucket_repositories/smallscale_experiments/BO/results/travel_time_simple_regret.eps
%%CreationDate: 10/19/2016  12:15:53
%%DocumentNeededFonts: Helvetica
%%DocumentProcessColors: Cyan Magenta Yellow Black
%%LanguageLevel: 2
%%Pages: 1
%%BoundingBox:    55   199   546   591
%%EndComments

%%BeginProlog
% MathWorks dictionary
/MathWorks 160 dict begin
% definition operators
/bdef {bind def} bind def
/ldef {load def} bind def
/xdef {exch def} bdef
/xstore {exch store} bdef
% operator abbreviations
/c  /clip ldef
/cc /concat ldef
/cp /closepath ldef
/gr /grestore ldef
/gs /gsave ldef
/mt /moveto ldef
/np /newpath ldef
/cm /currentmatrix ldef
/sm /setmatrix ldef
/rm /rmoveto ldef
/rl /rlineto ldef
/s {show newpath} bdef
/sc {setcmykcolor} bdef
/sr /setrgbcolor ldef
/sg /setgray ldef
/w /setlinewidth ldef
/j /setlinejoin ldef
/cap /setlinecap ldef
/rc {rectclip} bdef
/rf {rectfill} bdef
% page state control
/pgsv () def
/bpage {/pgsv save def} bdef
/epage {pgsv restore} bdef
/bplot /gsave ldef
/eplot {stroke grestore} bdef
% orientation switch
/portraitMode 0 def /landscapeMode 1 def /rotateMode 2 def
% coordinate system mappings
/dpi2point 0 def
% font control
/FontSize 0 def
/FMS {/FontSize xstore findfont [FontSize 0 0 FontSize neg 0 0]
  makefont setfont} bdef
/reencode {exch dup where {pop load} {pop StandardEncoding} ifelse
  exch dup 3 1 roll findfont dup length dict begin
  { 1 index /FID ne {def}{pop pop} ifelse } forall
  /Encoding exch def currentdict end definefont pop} bdef
/isroman {findfont /CharStrings get /Agrave known} bdef
/FMSR {3 1 roll 1 index dup isroman {reencode} {pop pop} ifelse
  exch FMS} bdef
/csm {1 dpi2point div -1 dpi2point div scale neg translate
 dup landscapeMode eq {pop -90 rotate}
  {rotateMode eq {90 rotate} if} ifelse} bdef
% line types: solid, dotted, dashed, dotdash
/SO { [] 0 setdash } bdef
/DO { [.5 dpi2point mul 4 dpi2point mul] 0 setdash } bdef
/DA { [6 dpi2point mul] 0 setdash } bdef
/DD { [.5 dpi2point mul 4 dpi2point mul 6 dpi2point mul 4
  dpi2point mul] 0 setdash } bdef
% macros for lines and objects
/L {lineto stroke} bdef
/MP {3 1 roll moveto 1 sub {rlineto} repeat} bdef
/AP {{rlineto} repeat} bdef
/PDlw -1 def
/W {/PDlw currentlinewidth def setlinewidth} def
/PP {closepath eofill} bdef
/DP {closepath stroke} bdef
/MR {4 -2 roll moveto dup  0 exch rlineto exch 0 rlineto
  neg 0 exch rlineto closepath} bdef
/FR {MR stroke} bdef
/PR {MR fill} bdef
/L1i {{currentfile picstr readhexstring pop} image} bdef
/tMatrix matrix def
/MakeOval {newpath tMatrix currentmatrix pop translate scale
0 0 1 0 360 arc tMatrix setmatrix} bdef
/FO {MakeOval stroke} bdef
/PO {MakeOval fill} bdef
/PD {currentlinewidth 2 div 0 360 arc fill
   PDlw -1 eq not {PDlw w /PDlw -1 def} if} def
/FA {newpath tMatrix currentmatrix pop translate scale
  0 0 1 5 -2 roll arc tMatrix setmatrix stroke} bdef
/PA {newpath tMatrix currentmatrix pop	translate 0 0 moveto scale
  0 0 1 5 -2 roll arc closepath tMatrix setmatrix fill} bdef
/FAn {newpath tMatrix currentmatrix pop translate scale
  0 0 1 5 -2 roll arcn tMatrix setmatrix stroke} bdef
/PAn {newpath tMatrix currentmatrix pop translate 0 0 moveto scale
  0 0 1 5 -2 roll arcn closepath tMatrix setmatrix fill} bdef
/vradius 0 def /hradius 0 def /lry 0 def
/lrx 0 def /uly 0 def /ulx 0 def /rad 0 def
/MRR {/vradius xdef /hradius xdef /lry xdef /lrx xdef /uly xdef
  /ulx xdef newpath tMatrix currentmatrix pop ulx hradius add uly
  vradius add translate hradius vradius scale 0 0 1 180 270 arc 
  tMatrix setmatrix lrx hradius sub uly vradius add translate
  hradius vradius scale 0 0 1 270 360 arc tMatrix setmatrix
  lrx hradius sub lry vradius sub translate hradius vradius scale
  0 0 1 0 90 arc tMatrix setmatrix ulx hradius add lry vradius sub
  translate hradius vradius scale 0 0 1 90 180 arc tMatrix setmatrix
  closepath} bdef
/FRR {MRR stroke } bdef
/PRR {MRR fill } bdef
/MlrRR {/lry xdef /lrx xdef /uly xdef /ulx xdef /rad lry uly sub 2 div def
  newpath tMatrix currentmatrix pop ulx rad add uly rad add translate
  rad rad scale 0 0 1 90 270 arc tMatrix setmatrix lrx rad sub lry rad
  sub translate rad rad scale 0 0 1 270 90 arc tMatrix setmatrix
  closepath} bdef
/FlrRR {MlrRR stroke } bdef
/PlrRR {MlrRR fill } bdef
/MtbRR {/lry xdef /lrx xdef /uly xdef /ulx xdef /rad lrx ulx sub 2 div def
  newpath tMatrix currentmatrix pop ulx rad add uly rad add translate
  rad rad scale 0 0 1 180 360 arc tMatrix setmatrix lrx rad sub lry rad
  sub translate rad rad scale 0 0 1 0 180 arc tMatrix setmatrix
  closepath} bdef
/FtbRR {MtbRR stroke } bdef
/PtbRR {MtbRR fill } bdef
/stri 6 array def /dtri 6 array def
/smat 6 array def /dmat 6 array def
/tmat1 6 array def /tmat2 6 array def /dif 3 array def
/asub {/ind2 exch def /ind1 exch def dup dup
  ind1 get exch ind2 get sub exch } bdef
/tri_to_matrix {
  2 0 asub 3 1 asub 4 0 asub 5 1 asub
  dup 0 get exch 1 get 7 -1 roll astore } bdef
/compute_transform {
  dmat dtri tri_to_matrix tmat1 invertmatrix 
  smat stri tri_to_matrix tmat2 concatmatrix } bdef
/ds {stri astore pop} bdef
/dt {dtri astore pop} bdef
/db {2 copy /cols xdef /rows xdef mul dup 3 mul string
  currentfile 
  3 index 0 eq {/ASCIIHexDecode filter}
  {/ASCII85Decode filter 3 index 2 eq {/RunLengthDecode filter} if }
  ifelse exch readstring pop
  dup 0 3 index getinterval /rbmap xdef
  dup 2 index dup getinterval /gbmap xdef
  1 index dup 2 mul exch getinterval /bbmap xdef pop pop}bdef
/it {gs np dtri aload pop moveto lineto lineto cp c
  cols rows 8 compute_transform 
  rbmap gbmap bbmap true 3 colorimage gr}bdef
/il {newpath moveto lineto stroke}bdef
currentdict end def
%%EndProlog

%%BeginSetup
MathWorks begin

0 cap

end
%%EndSetup

%%Page: 1 1
%%BeginPageSetup
%%PageBoundingBox:    55   199   546   591
MathWorks begin
bpage
%%EndPageSetup

%%BeginObject: obj1
bplot

/dpi2point 12 def
portraitMode 0216 7344 csm

  446   247  5899  4708 rc
87 dict begin %Colortable dictionary
/c0 { 0.000000 0.000000 0.000000 sr} bdef
/c1 { 1.000000 1.000000 1.000000 sr} bdef
/c2 { 0.900000 0.000000 0.000000 sr} bdef
/c3 { 0.000000 0.820000 0.000000 sr} bdef
/c4 { 0.000000 0.000000 0.800000 sr} bdef
/c5 { 0.910000 0.820000 0.320000 sr} bdef
/c6 { 1.000000 0.260000 0.820000 sr} bdef
/c7 { 0.000000 0.820000 0.820000 sr} bdef
c0
1 j
1 sg
   0    0 6913 5186 rf
6 w
0 4226 5356 0 0 -4226 899 4615 4 MP
PP
-5356 0 0 4226 5356 0 0 -4226 899 4615 5 MP stroke
4 w
DO
SO
6 w
0 sg
 899 4615 mt 6255 4615 L
 899  389 mt 6255  389 L
 899 4615 mt  899  389 L
6255 4615 mt 6255  389 L
 899 4615 mt 6255 4615 L
 899 4615 mt  899  389 L
 899 4615 mt  899 4561 L
 899  389 mt  899  442 L
%%IncludeResource: font Helvetica
/Helvetica /ISOLatin1Encoding 120 FMSR

 866 4760 mt 
(0) s
1409 4615 mt 1409 4561 L
1409  389 mt 1409  442 L
1343 4760 mt 
(10) s
1919 4615 mt 1919 4561 L
1919  389 mt 1919  442 L
1853 4760 mt 
(20) s
2429 4615 mt 2429 4561 L
2429  389 mt 2429  442 L
2363 4760 mt 
(30) s
2939 4615 mt 2939 4561 L
2939  389 mt 2939  442 L
2873 4760 mt 
(40) s
3449 4615 mt 3449 4561 L
3449  389 mt 3449  442 L
3383 4760 mt 
(50) s
3959 4615 mt 3959 4561 L
3959  389 mt 3959  442 L
3893 4760 mt 
(60) s
4469 4615 mt 4469 4561 L
4469  389 mt 4469  442 L
4403 4760 mt 
(70) s
4979 4615 mt 4979 4561 L
4979  389 mt 4979  442 L
4913 4760 mt 
(80) s
5489 4615 mt 5489 4561 L
5489  389 mt 5489  442 L
5423 4760 mt 
(90) s
5999 4615 mt 5999 4561 L
5999  389 mt 5999  442 L
5899 4760 mt 
(100) s
 899 4615 mt  952 4615 L
6255 4615 mt 6201 4615 L
 798 4659 mt 
(0) s
 899 3769 mt  952 3769 L
6255 3769 mt 6201 3769 L
 731 3813 mt 
(50) s
 899 2924 mt  952 2924 L
6255 2924 mt 6201 2924 L
 664 2968 mt 
(100) s
 899 2079 mt  952 2079 L
6255 2079 mt 6201 2079 L
 664 2123 mt 
(150) s
 899 1234 mt  952 1234 L
6255 1234 mt 6201 1234 L
 664 1278 mt 
(200) s
 899  389 mt  952  389 L
6255  389 mt 6201  389 L
 664  433 mt 
(250) s
 899 4615 mt 6255 4615 L
 899  389 mt 6255  389 L
 899 4615 mt  899  389 L
6255 4615 mt 6255  389 L
gs 899 389 5357 4227 rc
gr

gs 1285 4064 4737 554 rc
0 j
41 71 -82 0 41 -71 1358 4184 4 MP
/c8 { 0.000000 1.000000 0.000000 sr} bdef
c8
DP
41 71 -82 0 41 -71 1868 4302 4 MP
DP
41 71 -82 0 41 -71 2378 4381 4 MP
DP
41 71 -82 0 41 -71 2888 4430 4 MP
DP
41 71 -82 0 41 -71 3398 4469 4 MP
DP
41 71 -82 0 41 -71 3908 4485 4 MP
DP
41 71 -82 0 41 -71 4418 4525 4 MP
DP
41 71 -82 0 41 -71 4928 4538 4 MP
DP
41 71 -82 0 41 -71 5438 4568 4 MP
DP
41 71 -82 0 41 -71 5948 4591 4 MP
DP
gr

c8
gs 899 389 5357 4227 rc
gs 1285 3846 4737 226 rc
0 j
-41 71 -41 -71 82 0 1317 3943 4 MP
/c9 { 1.000000 1.000000 0.000000 sr} bdef
c9
DP
-41 71 -41 -71 82 0 1827 3953 4 MP
DP
-41 71 -41 -71 82 0 2337 3970 4 MP
DP
-41 71 -41 -71 82 0 2847 3970 4 MP
DP
-41 71 -41 -71 82 0 3357 3982 4 MP
DP
-41 71 -41 -71 82 0 3867 3987 4 MP
DP
-41 71 -41 -71 82 0 4377 4010 4 MP
DP
-41 71 -41 -71 82 0 4887 4018 4 MP
DP
-41 71 -41 -71 82 0 5397 4022 4 MP
DP
-41 71 -41 -71 82 0 5907 4022 4 MP
DP
gr

c9
gs 1285 4041 4737 436 rc
0 sg
1322 4114 mt 1394 4114 L
1358 4078 mt 1358 4150 L
1832 4256 mt 1904 4256 L
1868 4220 mt 1868 4292 L
2342 4303 mt 2414 4303 L
2378 4267 mt 2378 4339 L
2852 4336 mt 2924 4336 L
2888 4300 mt 2888 4372 L
3362 4356 mt 3434 4356 L
3398 4320 mt 3398 4392 L
3872 4380 mt 3944 4380 L
3908 4344 mt 3908 4416 L
4382 4389 mt 4454 4389 L
4418 4353 mt 4418 4425 L
4892 4390 mt 4964 4390 L
4928 4354 mt 4928 4426 L
5402 4397 mt 5474 4397 L
5438 4361 mt 5438 4433 L
5912 4403 mt 5984 4403 L
5948 4367 mt 5948 4439 L
gr

0 sg
gr

0 sg
3330 4903 mt 
(Iterations) s
 582 3033 mt  -90 rotate
(Simple Regret \(sec\)) s
90 rotate
 882 4658 mt 
( ) s
6239  431 mt 
( ) s
gs 899 389 5357 4227 rc
c8
51 5 51 0 51 0 51 0 51 0 51 6 51 7 51 3 
51 2 51 0 51 1 51 6 51 6 51 1 51 6 51 0 
51 6 51 0 51 4 51 0 51 2 51 0 51 0 51 0 
51 0 51 6 51 3 51 0 51 0 51 2 51 3 51 13 
51 0 51 0 51 8 51 0 51 8 51 6 51 1 51 1 
51 0 51 0 51 0 51 6 51 0 51 5 51 0 51 0 
51 0 51 5 51 0 51 0 51 0 51 0 51 6 51 3 
51 8 51 13 51 5 51 4 51 4 51 3 51 8 51 1 
51 7 51 6 51 0 51 5 51 8 51 7 51 7 51 7 
51 0 51 0 51 0 51 0 51 13 51 15 51 31 51 6 
51 0 51 3 51 53 51 2 51 6 51 2 51 4 51 0 
51 31 51 17 51 25 51 82 51 13 51 76 51 75 51 120 
51 72 51 231 51 629 899 2814 100 MP stroke
0 94 1358 4090 2 MP stroke
91 0 1312 4090 2 MP stroke
91 0 1312 4184 2 MP stroke
0 72 1868 4219 2 MP stroke
92 0 1822 4219 2 MP stroke
92 0 1822 4291 2 MP stroke
0 40 2378 4314 2 MP stroke
92 0 2332 4314 2 MP stroke
92 0 2332 4354 2 MP stroke
0 22 2888 4372 2 MP stroke
92 0 2842 4372 2 MP stroke
92 0 2842 4394 2 MP stroke
0 21 3398 4412 2 MP stroke
92 0 3352 4412 2 MP stroke
92 0 3352 4433 2 MP stroke
0 27 3908 4425 2 MP stroke
92 0 3862 4425 2 MP stroke
92 0 3862 4452 2 MP stroke
0 35 4418 4460 2 MP stroke
92 0 4372 4460 2 MP stroke
92 0 4372 4495 2 MP stroke
0 32 4928 4475 2 MP stroke
92 0 4882 4475 2 MP stroke
92 0 4882 4507 2 MP stroke
0 39 5438 4502 2 MP stroke
92 0 5392 4502 2 MP stroke
92 0 5392 4541 2 MP stroke
0 40 5948 4524 2 MP stroke
91 0 5903 4524 2 MP stroke
91 0 5903 4564 2 MP stroke
gr

c8
gs 1285 4064 4737 554 rc
0 j
41 71 -82 0 41 -71 1358 4184 4 MP
DP
41 71 -82 0 41 -71 1868 4302 4 MP
DP
41 71 -82 0 41 -71 2378 4381 4 MP
DP
41 71 -82 0 41 -71 2888 4430 4 MP
DP
41 71 -82 0 41 -71 3398 4469 4 MP
DP
41 71 -82 0 41 -71 3908 4485 4 MP
DP
41 71 -82 0 41 -71 4418 4525 4 MP
DP
41 71 -82 0 41 -71 4928 4538 4 MP
DP
41 71 -82 0 41 -71 5438 4568 4 MP
DP
41 71 -82 0 41 -71 5948 4591 4 MP
DP
gr

gs 899 389 5357 4227 rc
c9
51 0 51 0 51 0 51 0 51 0 51 0 51 0 51 0 
51 0 51 0 51 0 51 4 51 0 51 0 51 0 51 0 
51 0 51 0 51 0 51 0 51 0 51 0 51 0 51 0 
51 0 51 0 51 0 51 8 51 0 51 0 51 23 51 0 
51 0 51 0 51 0 51 0 51 0 51 0 51 0 51 0 
51 2 51 3 51 0 51 0 51 0 51 0 51 0 51 0 
51 0 51 0 51 3 51 9 51 0 51 0 51 0 51 0 
51 0 51 0 51 0 51 0 51 0 51 0 51 0 51 0 
51 0 51 0 51 0 51 0 51 0 51 0 51 0 51 3 
51 14 51 0 51 0 51 0 51 0 51 0 51 0 51 0 
51 0 51 0 51 0 51 7 51 0 51 0 51 0 51 3 
51 0 51 0 51 7 51 12 51 51 51 42 51 153 51 223 
51 77 51 679 51 1973 899 702 100 MP stroke
0 82 1358 3878 2 MP stroke
91 0 1312 3878 2 MP stroke
91 0 1312 3960 2 MP stroke
0 77 1868 3891 2 MP stroke
92 0 1822 3891 2 MP stroke
92 0 1822 3968 2 MP stroke
0 65 2378 3914 2 MP stroke
92 0 2332 3914 2 MP stroke
92 0 2332 3979 2 MP stroke
0 65 2888 3914 2 MP stroke
92 0 2842 3914 2 MP stroke
92 0 2842 3979 2 MP stroke
0 62 3398 3927 2 MP stroke
92 0 3352 3927 2 MP stroke
92 0 3352 3989 2 MP stroke
0 62 3908 3932 2 MP stroke
92 0 3862 3932 2 MP stroke
92 0 3862 3994 2 MP stroke
0 74 4418 3949 2 MP stroke
92 0 4372 3949 2 MP stroke
92 0 4372 4023 2 MP stroke
0 73 4928 3957 2 MP stroke
92 0 4882 3957 2 MP stroke
92 0 4882 4030 2 MP stroke
0 72 5438 3962 2 MP stroke
92 0 5392 3962 2 MP stroke
92 0 5392 4034 2 MP stroke
0 72 5948 3962 2 MP stroke
91 0 5903 3962 2 MP stroke
91 0 5903 4034 2 MP stroke
gs 1285 3846 4737 226 rc
0 j
-41 71 -41 -71 82 0 1317 3943 4 MP
DP
-41 71 -41 -71 82 0 1827 3953 4 MP
DP
-41 71 -41 -71 82 0 2337 3970 4 MP
DP
-41 71 -41 -71 82 0 2847 3970 4 MP
DP
-41 71 -41 -71 82 0 3357 3982 4 MP
DP
-41 71 -41 -71 82 0 3867 3987 4 MP
DP
-41 71 -41 -71 82 0 4377 4010 4 MP
DP
-41 71 -41 -71 82 0 4887 4018 4 MP
DP
-41 71 -41 -71 82 0 5397 4022 4 MP
DP
-41 71 -41 -71 82 0 5907 4022 4 MP
DP
gr

0 sg
51 0 51 0 51 0 51 0 51 0 51 0 51 1 51 0 
51 0 51 5 51 0 51 0 51 0 51 3 51 3 51 0 
51 0 51 0 51 1 51 0 51 0 51 0 51 0 51 0 
51 0 51 0 51 0 51 1 51 0 51 0 51 0 51 0 
51 1 51 0 51 6 51 0 51 0 51 0 51 2 51 0 
51 0 51 0 51 9 51 1 51 0 51 2 51 0 51 0 
51 0 51 12 51 0 51 9 51 0 51 0 51 0 51 1 
51 10 51 0 51 0 51 0 51 0 51 0 51 0 51 0 
51 12 51 2 51 0 51 5 51 0 51 14 51 10 51 0 
51 0 51 0 51 0 51 16 51 12 51 0 51 9 51 0 
51 26 51 21 51 1 51 0 51 0 51 0 51 14 51 9 
51 44 51 27 51 34 51 49 51 20 51 47 51 153 51 10 
51 139 51 403 51 761 899 2498 100 MP stroke
0 121 1358 4053 2 MP stroke
91 0 1312 4053 2 MP stroke
91 0 1312 4174 2 MP stroke
0 94 1868 4209 2 MP stroke
92 0 1822 4209 2 MP stroke
92 0 1822 4303 2 MP stroke
0 62 2378 4272 2 MP stroke
92 0 2332 4272 2 MP stroke
92 0 2332 4334 2 MP stroke
0 60 2888 4306 2 MP stroke
92 0 2842 4306 2 MP stroke
92 0 2842 4366 2 MP stroke
0 56 3398 4328 2 MP stroke
92 0 3352 4328 2 MP stroke
92 0 3352 4384 2 MP stroke
0 49 3908 4355 2 MP stroke
92 0 3862 4355 2 MP stroke
92 0 3862 4404 2 MP stroke
0 45 4418 4367 2 MP stroke
92 0 4372 4367 2 MP stroke
92 0 4372 4412 2 MP stroke
0 45 4928 4368 2 MP stroke
92 0 4882 4368 2 MP stroke
92 0 4882 4413 2 MP stroke
0 46 5438 4374 2 MP stroke
92 0 5392 4374 2 MP stroke
92 0 5392 4420 2 MP stroke
0 45 5948 4381 2 MP stroke
91 0 5903 4381 2 MP stroke
91 0 5903 4426 2 MP stroke
gs 1285 4041 4737 436 rc
1322 4114 mt 1394 4114 L
1358 4078 mt 1358 4150 L
1832 4256 mt 1904 4256 L
1868 4220 mt 1868 4292 L
2342 4303 mt 2414 4303 L
2378 4267 mt 2378 4339 L
2852 4336 mt 2924 4336 L
2888 4300 mt 2888 4372 L
3362 4356 mt 3434 4356 L
3398 4320 mt 3398 4392 L
3872 4380 mt 3944 4380 L
3908 4344 mt 3908 4416 L
4382 4389 mt 4454 4389 L
4418 4353 mt 4418 4425 L
4892 4390 mt 4964 4390 L
4928 4354 mt 4928 4426 L
5402 4397 mt 5474 4397 L
5438 4361 mt 5438 4433 L
5912 4403 mt 5984 4403 L
5948 4367 mt 5948 4439 L
gr

gr

0 sg
1 sg
0 480 1421 0 0 -480 4774 929 4 MP
PP
-1421 0 0 480 1421 0 0 -480 4774 929 5 MP stroke
4 w
DO
SO
6 w
0 sg
4774  929 mt 6195  929 L
4774  449 mt 6195  449 L
4774  929 mt 4774  449 L
6195  929 mt 6195  449 L
4774  929 mt 6195  929 L
4774  929 mt 4774  449 L
4774  929 mt 6195  929 L
4774  449 mt 6195  449 L
4774  929 mt 4774  449 L
6195  929 mt 6195  449 L
5238  582 mt 
(original BO) s
gs 4774 449 1422 481 rc
gs 4950 466 147 147 rc
0 j
41 71 -82 0 41 -71 5023 586 4 MP
c8
DP
gr

c8
gr

c8
0 sg
5238  732 mt 
(genetic algorithm) s
gs 4774 449 1422 481 rc
gs 4950 616 147 147 rc
0 j
-41 71 -41 -71 82 0 4982 713 4 MP
c9
DP
gr

c9
gr

c9
0 sg
5238  881 mt 
(random selection) s
gs 4774 449 1422 481 rc
gs 4950 765 147 147 rc
4987  838 mt 5059  838 L
5023  802 mt 5023  874 L
gr

gr


end %%Color Dict

eplot
%%EndObject

epage
end

showpage

%%Trailer
%%EOF
