%!PS-Adobe-3.0 EPSF-3.0
%%Creator: MATLAB, The MathWorks, Inc. Version 7.12.0.635 (R2011a). Operating System: Linux 3.16.0-4-amd64 #1 SMP Debian 3.16.36-1+deb8u1 (2016-09-03) x86_64.
%%Title: /home/jaemin/Research/bitbucket_repositories/smallscale_experiments/BO/results/monetary_penalty_avr_cumulative_regret.eps
%%CreationDate: 10/19/2016  12:15:56
%%DocumentNeededFonts: Helvetica
%%DocumentProcessColors: Cyan Magenta Yellow Black
%%LanguageLevel: 2
%%Pages: 1
%%BoundingBox:    53   199   546   591
%%EndComments

%%BeginProlog
% MathWorks dictionary
/MathWorks 160 dict begin
% definition operators
/bdef {bind def} bind def
/ldef {load def} bind def
/xdef {exch def} bdef
/xstore {exch store} bdef
% operator abbreviations
/c  /clip ldef
/cc /concat ldef
/cp /closepath ldef
/gr /grestore ldef
/gs /gsave ldef
/mt /moveto ldef
/np /newpath ldef
/cm /currentmatrix ldef
/sm /setmatrix ldef
/rm /rmoveto ldef
/rl /rlineto ldef
/s {show newpath} bdef
/sc {setcmykcolor} bdef
/sr /setrgbcolor ldef
/sg /setgray ldef
/w /setlinewidth ldef
/j /setlinejoin ldef
/cap /setlinecap ldef
/rc {rectclip} bdef
/rf {rectfill} bdef
% page state control
/pgsv () def
/bpage {/pgsv save def} bdef
/epage {pgsv restore} bdef
/bplot /gsave ldef
/eplot {stroke grestore} bdef
% orientation switch
/portraitMode 0 def /landscapeMode 1 def /rotateMode 2 def
% coordinate system mappings
/dpi2point 0 def
% font control
/FontSize 0 def
/FMS {/FontSize xstore findfont [FontSize 0 0 FontSize neg 0 0]
  makefont setfont} bdef
/reencode {exch dup where {pop load} {pop StandardEncoding} ifelse
  exch dup 3 1 roll findfont dup length dict begin
  { 1 index /FID ne {def}{pop pop} ifelse } forall
  /Encoding exch def currentdict end definefont pop} bdef
/isroman {findfont /CharStrings get /Agrave known} bdef
/FMSR {3 1 roll 1 index dup isroman {reencode} {pop pop} ifelse
  exch FMS} bdef
/csm {1 dpi2point div -1 dpi2point div scale neg translate
 dup landscapeMode eq {pop -90 rotate}
  {rotateMode eq {90 rotate} if} ifelse} bdef
% line types: solid, dotted, dashed, dotdash
/SO { [] 0 setdash } bdef
/DO { [.5 dpi2point mul 4 dpi2point mul] 0 setdash } bdef
/DA { [6 dpi2point mul] 0 setdash } bdef
/DD { [.5 dpi2point mul 4 dpi2point mul 6 dpi2point mul 4
  dpi2point mul] 0 setdash } bdef
% macros for lines and objects
/L {lineto stroke} bdef
/MP {3 1 roll moveto 1 sub {rlineto} repeat} bdef
/AP {{rlineto} repeat} bdef
/PDlw -1 def
/W {/PDlw currentlinewidth def setlinewidth} def
/PP {closepath eofill} bdef
/DP {closepath stroke} bdef
/MR {4 -2 roll moveto dup  0 exch rlineto exch 0 rlineto
  neg 0 exch rlineto closepath} bdef
/FR {MR stroke} bdef
/PR {MR fill} bdef
/L1i {{currentfile picstr readhexstring pop} image} bdef
/tMatrix matrix def
/MakeOval {newpath tMatrix currentmatrix pop translate scale
0 0 1 0 360 arc tMatrix setmatrix} bdef
/FO {MakeOval stroke} bdef
/PO {MakeOval fill} bdef
/PD {currentlinewidth 2 div 0 360 arc fill
   PDlw -1 eq not {PDlw w /PDlw -1 def} if} def
/FA {newpath tMatrix currentmatrix pop translate scale
  0 0 1 5 -2 roll arc tMatrix setmatrix stroke} bdef
/PA {newpath tMatrix currentmatrix pop	translate 0 0 moveto scale
  0 0 1 5 -2 roll arc closepath tMatrix setmatrix fill} bdef
/FAn {newpath tMatrix currentmatrix pop translate scale
  0 0 1 5 -2 roll arcn tMatrix setmatrix stroke} bdef
/PAn {newpath tMatrix currentmatrix pop translate 0 0 moveto scale
  0 0 1 5 -2 roll arcn closepath tMatrix setmatrix fill} bdef
/vradius 0 def /hradius 0 def /lry 0 def
/lrx 0 def /uly 0 def /ulx 0 def /rad 0 def
/MRR {/vradius xdef /hradius xdef /lry xdef /lrx xdef /uly xdef
  /ulx xdef newpath tMatrix currentmatrix pop ulx hradius add uly
  vradius add translate hradius vradius scale 0 0 1 180 270 arc 
  tMatrix setmatrix lrx hradius sub uly vradius add translate
  hradius vradius scale 0 0 1 270 360 arc tMatrix setmatrix
  lrx hradius sub lry vradius sub translate hradius vradius scale
  0 0 1 0 90 arc tMatrix setmatrix ulx hradius add lry vradius sub
  translate hradius vradius scale 0 0 1 90 180 arc tMatrix setmatrix
  closepath} bdef
/FRR {MRR stroke } bdef
/PRR {MRR fill } bdef
/MlrRR {/lry xdef /lrx xdef /uly xdef /ulx xdef /rad lry uly sub 2 div def
  newpath tMatrix currentmatrix pop ulx rad add uly rad add translate
  rad rad scale 0 0 1 90 270 arc tMatrix setmatrix lrx rad sub lry rad
  sub translate rad rad scale 0 0 1 270 90 arc tMatrix setmatrix
  closepath} bdef
/FlrRR {MlrRR stroke } bdef
/PlrRR {MlrRR fill } bdef
/MtbRR {/lry xdef /lrx xdef /uly xdef /ulx xdef /rad lrx ulx sub 2 div def
  newpath tMatrix currentmatrix pop ulx rad add uly rad add translate
  rad rad scale 0 0 1 180 360 arc tMatrix setmatrix lrx rad sub lry rad
  sub translate rad rad scale 0 0 1 0 180 arc tMatrix setmatrix
  closepath} bdef
/FtbRR {MtbRR stroke } bdef
/PtbRR {MtbRR fill } bdef
/stri 6 array def /dtri 6 array def
/smat 6 array def /dmat 6 array def
/tmat1 6 array def /tmat2 6 array def /dif 3 array def
/asub {/ind2 exch def /ind1 exch def dup dup
  ind1 get exch ind2 get sub exch } bdef
/tri_to_matrix {
  2 0 asub 3 1 asub 4 0 asub 5 1 asub
  dup 0 get exch 1 get 7 -1 roll astore } bdef
/compute_transform {
  dmat dtri tri_to_matrix tmat1 invertmatrix 
  smat stri tri_to_matrix tmat2 concatmatrix } bdef
/ds {stri astore pop} bdef
/dt {dtri astore pop} bdef
/db {2 copy /cols xdef /rows xdef mul dup 3 mul string
  currentfile 
  3 index 0 eq {/ASCIIHexDecode filter}
  {/ASCII85Decode filter 3 index 2 eq {/RunLengthDecode filter} if }
  ifelse exch readstring pop
  dup 0 3 index getinterval /rbmap xdef
  dup 2 index dup getinterval /gbmap xdef
  1 index dup 2 mul exch getinterval /bbmap xdef pop pop}bdef
/it {gs np dtri aload pop moveto lineto lineto cp c
  cols rows 8 compute_transform 
  rbmap gbmap bbmap true 3 colorimage gr}bdef
/il {newpath moveto lineto stroke}bdef
currentdict end def
%%EndProlog

%%BeginSetup
MathWorks begin

0 cap

end
%%EndSetup

%%Page: 1 1
%%BeginPageSetup
%%PageBoundingBox:    53   199   546   591
MathWorks begin
bpage
%%EndPageSetup

%%BeginObject: obj1
bplot

/dpi2point 12 def
portraitMode 0216 7344 csm

  426   247  5919  4708 rc
87 dict begin %Colortable dictionary
/c0 { 0.000000 0.000000 0.000000 sr} bdef
/c1 { 1.000000 1.000000 1.000000 sr} bdef
/c2 { 0.900000 0.000000 0.000000 sr} bdef
/c3 { 0.000000 0.820000 0.000000 sr} bdef
/c4 { 0.000000 0.000000 0.800000 sr} bdef
/c5 { 0.910000 0.820000 0.320000 sr} bdef
/c6 { 1.000000 0.260000 0.820000 sr} bdef
/c7 { 0.000000 0.820000 0.820000 sr} bdef
c0
1 j
1 sg
   0    0 6913 5186 rf
6 w
0 4226 5356 0 0 -4226 899 4615 4 MP
PP
-5356 0 0 4226 5356 0 0 -4226 899 4615 5 MP stroke
4 w
DO
SO
6 w
0 sg
 899 4615 mt 6255 4615 L
 899  389 mt 6255  389 L
 899 4615 mt  899  389 L
6255 4615 mt 6255  389 L
 899 4615 mt 6255 4615 L
 899 4615 mt  899  389 L
 899 4615 mt  899 4561 L
 899  389 mt  899  442 L
%%IncludeResource: font Helvetica
/Helvetica /ISOLatin1Encoding 120 FMSR

 866 4760 mt 
(0) s
1409 4615 mt 1409 4561 L
1409  389 mt 1409  442 L
1343 4760 mt 
(10) s
1919 4615 mt 1919 4561 L
1919  389 mt 1919  442 L
1853 4760 mt 
(20) s
2429 4615 mt 2429 4561 L
2429  389 mt 2429  442 L
2363 4760 mt 
(30) s
2939 4615 mt 2939 4561 L
2939  389 mt 2939  442 L
2873 4760 mt 
(40) s
3449 4615 mt 3449 4561 L
3449  389 mt 3449  442 L
3383 4760 mt 
(50) s
3959 4615 mt 3959 4561 L
3959  389 mt 3959  442 L
3893 4760 mt 
(60) s
4469 4615 mt 4469 4561 L
4469  389 mt 4469  442 L
4403 4760 mt 
(70) s
4979 4615 mt 4979 4561 L
4979  389 mt 4979  442 L
4913 4760 mt 
(80) s
5489 4615 mt 5489 4561 L
5489  389 mt 5489  442 L
5423 4760 mt 
(90) s
5999 4615 mt 5999 4561 L
5999  389 mt 5999  442 L
5899 4760 mt 
(100) s
 899 4615 mt  952 4615 L
6255 4615 mt 6201 4615 L
 798 4659 mt 
(1) s
 899 4145 mt  952 4145 L
6255 4145 mt 6201 4145 L
 698 4189 mt 
(1.5) s
 899 3675 mt  952 3675 L
6255 3675 mt 6201 3675 L
 798 3719 mt 
(2) s
 899 3206 mt  952 3206 L
6255 3206 mt 6201 3206 L
 698 3250 mt 
(2.5) s
 899 2736 mt  952 2736 L
6255 2736 mt 6201 2736 L
 798 2780 mt 
(3) s
 899 2267 mt  952 2267 L
6255 2267 mt 6201 2267 L
 698 2311 mt 
(3.5) s
 899 1797 mt  952 1797 L
6255 1797 mt 6201 1797 L
 798 1841 mt 
(4) s
 899 1328 mt  952 1328 L
6255 1328 mt 6201 1328 L
 698 1372 mt 
(4.5) s
 899  858 mt  952  858 L
6255  858 mt 6201  858 L
 798  902 mt 
(5) s
 899  389 mt  952  389 L
6255  389 mt 6201  389 L
 698  433 mt 
(5.5) s
 899 4615 mt 6255 4615 L
 899  389 mt 6255  389 L
 899 4615 mt  899  389 L
6255 4615 mt 6255  389 L
gs 899 389 5357 4227 rc
gs 1285 3410 4737 1063 rc
0 j
41 71 -82 0 41 -71 1358 3752 4 MP
/c8 { 0.000000 1.000000 0.000000 sr} bdef
c8
DP
41 71 -82 0 41 -71 1868 3848 4 MP
DP
41 71 -82 0 41 -71 2378 3530 4 MP
DP
41 71 -82 0 41 -71 2888 3837 4 MP
DP
41 71 -82 0 41 -71 3398 4057 4 MP
DP
41 71 -82 0 41 -71 3908 4199 4 MP
DP
41 71 -82 0 41 -71 4418 4299 4 MP
DP
41 71 -82 0 41 -71 4928 4358 4 MP
DP
41 71 -82 0 41 -71 5438 4406 4 MP
DP
41 71 -82 0 41 -71 5948 4446 4 MP
DP
gr

c8
gs 1285 2569 4737 1527 rc
0 j
-41 71 -41 -71 82 0 1317 2666 4 MP
/c9 { 1.000000 1.000000 0.000000 sr} bdef
c9
DP
-41 71 -41 -71 82 0 1827 3100 4 MP
DP
-41 71 -41 -71 82 0 2337 3363 4 MP
DP
-41 71 -41 -71 82 0 2847 3551 4 MP
DP
-41 71 -41 -71 82 0 3357 3705 4 MP
DP
-41 71 -41 -71 82 0 3867 3786 4 MP
DP
-41 71 -41 -71 82 0 4377 3868 4 MP
DP
-41 71 -41 -71 82 0 4887 3938 4 MP
DP
-41 71 -41 -71 82 0 5397 3998 4 MP
DP
-41 71 -41 -71 82 0 5907 4046 4 MP
DP
gr

c9
gs 1285 2490 4737 183 rc
0 sg
1322 2589 mt 1394 2589 L
1358 2553 mt 1358 2625 L
1832 2599 mt 1904 2599 L
1868 2563 mt 1868 2635 L
2342 2563 mt 2414 2563 L
2378 2527 mt 2378 2599 L
2852 2580 mt 2924 2580 L
2888 2544 mt 2888 2616 L
3362 2579 mt 3434 2579 L
3398 2543 mt 3398 2615 L
3872 2590 mt 3944 2590 L
3908 2554 mt 3908 2626 L
4382 2581 mt 4454 2581 L
4418 2545 mt 4418 2617 L
4892 2591 mt 4964 2591 L
4928 2555 mt 4928 2627 L
5402 2579 mt 5474 2579 L
5438 2543 mt 5438 2615 L
5912 2594 mt 5984 2594 L
5948 2558 mt 5948 2630 L
gr

0 sg
gr

3330 4903 mt 
(Iterations) s
 562 2628 mt  -90 rotate
(R) s
90 rotate
%%IncludeResource: font Helvetica
/Helvetica /ISOLatin1Encoding 96 FMSR

 622 2542 mt  -90 rotate
(T) s
90 rotate
%%IncludeResource: font Helvetica
/Helvetica /ISOLatin1Encoding 120 FMSR

 562 2484 mt  -90 rotate
(/T) s
90 rotate
 882 4658 mt 
( ) s
6239  431 mt 
( ) s
gs 899 389 5357 4227 rc
c8
51 5 51 4 51 5 51 3 51 7 51 0 51 -1 51 7 
51 5 51 5 51 5 51 1 51 4 51 6 51 7 51 5 
51 4 51 5 51 5 51 6 51 3 51 3 51 5 51 6 
51 8 51 5 51 4 51 5 51 10 51 10 51 10 51 7 
51 9 51 8 51 11 51 12 51 10 51 8 51 12 51 13 
51 10 51 14 51 14 51 15 51 17 51 14 51 16 51 18 
51 8 51 16 51 18 51 22 51 18 51 20 51 22 51 19 
51 25 51 22 51 27 51 27 51 27 51 23 51 28 51 30 
51 25 51 39 51 33 51 34 51 35 51 33 51 -48 51 -48 
51 -43 51 -35 51 -17 51 -40 51 -12 51 -12 51 -43 51 -20 
51 10 51 -9 51 28 51 10 51 -11 51 -47 51 14 51 16 
51 10 51 75 51 38 51 77 51 55 51 140 51 136 51 84 
51 289 51 413 51 1075 899 1398 100 MP stroke
0 268 1358 3571 2 MP stroke
91 0 1312 3571 2 MP stroke
91 0 1312 3839 2 MP stroke
0 165 1868 3718 2 MP stroke
92 0 1822 3718 2 MP stroke
92 0 1822 3883 2 MP stroke
0 117 2378 3425 2 MP stroke
92 0 2332 3425 2 MP stroke
92 0 2332 3542 2 MP stroke
0 84 2888 3748 2 MP stroke
92 0 2842 3748 2 MP stroke
92 0 2842 3832 2 MP stroke
0 77 3398 3972 2 MP stroke
92 0 3352 3972 2 MP stroke
92 0 3352 4049 2 MP stroke
0 70 3908 4117 2 MP stroke
92 0 3862 4117 2 MP stroke
92 0 3862 4187 2 MP stroke
0 56 4418 4224 2 MP stroke
92 0 4372 4224 2 MP stroke
92 0 4372 4280 2 MP stroke
0 54 4928 4284 2 MP stroke
92 0 4882 4284 2 MP stroke
92 0 4882 4338 2 MP stroke
0 47 5438 4336 2 MP stroke
92 0 5392 4336 2 MP stroke
92 0 5392 4383 2 MP stroke
0 44 5948 4377 2 MP stroke
91 0 5903 4377 2 MP stroke
91 0 5903 4421 2 MP stroke
gs 1285 3410 4737 1063 rc
0 j
41 71 -82 0 41 -71 1358 3752 4 MP
DP
41 71 -82 0 41 -71 1868 3848 4 MP
DP
41 71 -82 0 41 -71 2378 3530 4 MP
DP
41 71 -82 0 41 -71 2888 3837 4 MP
DP
41 71 -82 0 41 -71 3398 4057 4 MP
DP
41 71 -82 0 41 -71 3908 4199 4 MP
DP
41 71 -82 0 41 -71 4418 4299 4 MP
DP
41 71 -82 0 41 -71 4928 4358 4 MP
DP
41 71 -82 0 41 -71 5438 4406 4 MP
DP
41 71 -82 0 41 -71 5948 4446 4 MP
DP
gr

c9
51 -7 51 -10 51 8 51 5 51 7 51 9 51 7 51 2 
51 13 51 14 51 -7 51 -11 51 9 51 7 51 8 51 11 
51 9 51 2 51 16 51 16 51 -7 51 -14 51 12 51 6 
51 9 51 8 51 5 51 13 51 19 51 19 51 -13 51 -7 
51 6 51 -1 51 2 51 19 51 17 51 12 51 23 51 24 
51 -29 51 -27 51 7 51 15 51 21 51 5 51 18 51 12 
51 29 51 30 51 -14 51 -5 51 13 51 17 51 20 51 10 
51 11 51 23 51 38 51 41 51 -7 51 3 51 15 51 8 
51 28 51 -11 51 10 51 27 51 55 51 60 51 -10 51 5 
51 15 51 -35 51 39 51 20 51 22 51 28 51 81 51 98 
51 -40 51 22 51 29 51 18 51 31 51 14 51 -24 51 29 
51 138 51 217 51 48 51 66 51 58 51 101 51 26 51 298 
51 100 51 516 51 816 899 613 100 MP stroke
0 288 1358 2498 2 MP stroke
91 0 1312 2498 2 MP stroke
91 0 1312 2786 2 MP stroke
0 252 1868 2950 2 MP stroke
92 0 1822 2950 2 MP stroke
92 0 1822 3202 2 MP stroke
0 213 2378 3233 2 MP stroke
92 0 2332 3233 2 MP stroke
92 0 2332 3446 2 MP stroke
0 202 2888 3426 2 MP stroke
92 0 2842 3426 2 MP stroke
92 0 2842 3628 2 MP stroke
0 175 3398 3593 2 MP stroke
92 0 3352 3593 2 MP stroke
92 0 3352 3768 2 MP stroke
0 153 3908 3685 2 MP stroke
92 0 3862 3685 2 MP stroke
92 0 3862 3838 2 MP stroke
0 144 4418 3772 2 MP stroke
92 0 4372 3772 2 MP stroke
92 0 4372 3916 2 MP stroke
0 129 4928 3849 2 MP stroke
92 0 4882 3849 2 MP stroke
92 0 4882 3978 2 MP stroke
0 121 5438 3913 2 MP stroke
92 0 5392 3913 2 MP stroke
92 0 5392 4034 2 MP stroke
0 118 5948 3963 2 MP stroke
91 0 5903 3963 2 MP stroke
91 0 5903 4081 2 MP stroke
gs 1285 2569 4737 1527 rc
0 j
-41 71 -41 -71 82 0 1317 2666 4 MP
DP
-41 71 -41 -71 82 0 1827 3100 4 MP
DP
-41 71 -41 -71 82 0 2337 3363 4 MP
DP
-41 71 -41 -71 82 0 2847 3551 4 MP
DP
-41 71 -41 -71 82 0 3357 3705 4 MP
DP
-41 71 -41 -71 82 0 3867 3786 4 MP
DP
-41 71 -41 -71 82 0 4377 3868 4 MP
DP
-41 71 -41 -71 82 0 4887 3938 4 MP
DP
-41 71 -41 -71 82 0 5397 3998 4 MP
DP
-41 71 -41 -71 82 0 5907 4046 4 MP
DP
gr

0 sg
51 12 51 -4 51 5 51 -4 51 -3 51 4 51 2 51 0 
51 4 51 -1 51 1 51 7 51 -4 51 7 51 -6 51 -3 
51 -3 51 -2 51 -8 51 -1 51 2 51 5 51 8 51 -5 
51 -1 51 13 51 2 51 -9 51 3 51 -8 51 3 51 7 
51 -2 51 -4 51 -6 51 5 51 7 51 -17 51 -1 51 -1 
51 9 51 -2 51 4 51 -8 51 -1 51 -4 51 6 51 10 
51 -1 51 -2 51 5 51 3 51 11 51 -2 51 -10 51 10 
51 -9 51 -13 51 3 51 1 51 -2 51 9 51 23 51 -6 
51 11 51 -5 51 -1 51 -4 51 -5 51 -3 51 -2 51 -29 
51 11 51 -7 51 -9 51 -4 51 12 51 4 51 15 51 -27 
51 2 51 12 51 14 51 59 51 -18 51 -51 51 28 51 12 
51 24 51 -72 51 6 51 11 51 -2 51 -8 51 100 51 -71 
51 -266 51 4 51 70 899 2745 100 MP stroke
0 227 1358 2475 2 MP stroke
91 0 1312 2475 2 MP stroke
91 0 1312 2702 2 MP stroke
0 184 1868 2507 2 MP stroke
92 0 1822 2507 2 MP stroke
92 0 1822 2691 2 MP stroke
0 154 2378 2486 2 MP stroke
92 0 2332 2486 2 MP stroke
92 0 2332 2640 2 MP stroke
0 154 2888 2503 2 MP stroke
92 0 2842 2503 2 MP stroke
92 0 2842 2657 2 MP stroke
0 118 3398 2520 2 MP stroke
92 0 3352 2520 2 MP stroke
92 0 3352 2638 2 MP stroke
0 114 3908 2533 2 MP stroke
92 0 3862 2533 2 MP stroke
92 0 3862 2647 2 MP stroke
0 96 4418 2533 2 MP stroke
92 0 4372 2533 2 MP stroke
92 0 4372 2629 2 MP stroke
0 92 4928 2545 2 MP stroke
92 0 4882 2545 2 MP stroke
92 0 4882 2637 2 MP stroke
0 83 5438 2537 2 MP stroke
92 0 5392 2537 2 MP stroke
92 0 5392 2620 2 MP stroke
0 82 5948 2553 2 MP stroke
91 0 5903 2553 2 MP stroke
91 0 5903 2635 2 MP stroke
gs 1285 2490 4737 183 rc
1322 2589 mt 1394 2589 L
1358 2553 mt 1358 2625 L
1832 2599 mt 1904 2599 L
1868 2563 mt 1868 2635 L
2342 2563 mt 2414 2563 L
2378 2527 mt 2378 2599 L
2852 2580 mt 2924 2580 L
2888 2544 mt 2888 2616 L
3362 2579 mt 3434 2579 L
3398 2543 mt 3398 2615 L
3872 2590 mt 3944 2590 L
3908 2554 mt 3908 2626 L
4382 2581 mt 4454 2581 L
4418 2545 mt 4418 2617 L
4892 2591 mt 4964 2591 L
4928 2555 mt 4928 2627 L
5402 2579 mt 5474 2579 L
5438 2543 mt 5438 2615 L
5912 2594 mt 5984 2594 L
5948 2558 mt 5948 2630 L
gr

gr

1 sg
0 480 1421 0 0 -480 4774 929 4 MP
PP
-1421 0 0 480 1421 0 0 -480 4774 929 5 MP stroke
4 w
DO
SO
6 w
0 sg
4774  929 mt 6195  929 L
4774  449 mt 6195  449 L
4774  929 mt 4774  449 L
6195  929 mt 6195  449 L
4774  929 mt 6195  929 L
4774  929 mt 4774  449 L
4774  929 mt 6195  929 L
4774  449 mt 6195  449 L
4774  929 mt 4774  449 L
6195  929 mt 6195  449 L
5238  582 mt 
(original BO) s
gs 4774 449 1422 481 rc
gs 4950 466 147 147 rc
0 j
41 71 -82 0 41 -71 5023 586 4 MP
c8
DP
gr

c8
gr

c8
0 sg
5238  732 mt 
(genetic algorithm) s
gs 4774 449 1422 481 rc
gs 4950 616 147 147 rc
0 j
-41 71 -41 -71 82 0 4982 713 4 MP
c9
DP
gr

c9
gr

c9
0 sg
5238  881 mt 
(random selection) s
gs 4774 449 1422 481 rc
gs 4950 765 147 147 rc
4987  838 mt 5059  838 L
5023  802 mt 5023  874 L
gr

gr


end %%Color Dict

eplot
%%EndObject

epage
end

showpage

%%Trailer
%%EOF
